Lab_5/Lab5_template_de1soc/simulation/qsim/dds_and_nios_lab.msim.vcd
$comment
	File created using the following command:
		vcd file dds_and_nios_lab.msim.vcd -direction
$end
$date
	Mon Mar 25 10:22:45 2019
$end
$version
	ModelSim Version 10.3c
$end
$timescale
	1ps
$end

$scope module LFSR_vlg_vec_tst $end
$var reg 1 ! clk $end
$var reg 1 " reset $end
$var wire 1 # out_random_number [4] $end
$var wire 1 $ out_random_number [3] $end
$var wire 1 % out_random_number [2] $end
$var wire 1 & out_random_number [1] $end
$var wire 1 ' out_random_number [0] $end
$var wire 1 ( sampler $end

$scope module i1 $end
$var wire 1 ) gnd $end
$var wire 1 * vcc $end
$var wire 1 + unknown $end
$var tri1 1 , devclrn $end
$var tri1 1 - devpor $end
$var tri1 1 . devoe $end
$var wire 1 / out_random_number[0]~output_o $end
$var wire 1 0 out_random_number[1]~output_o $end
$var wire 1 1 out_random_number[2]~output_o $end
$var wire 1 2 out_random_number[3]~output_o $end
$var wire 1 3 out_random_number[4]~output_o $end
$var wire 1 4 clk~input_o $end
$var wire 1 5 reset~input_o $end
$var wire 1 6 out_random_number~4_combout $end
$var wire 1 7 out_random_number[4]~reg0_q $end
$var wire 1 8 out_random_number~3_combout $end
$var wire 1 9 out_random_number[3]~reg0_q $end
$var wire 1 : out_random_number~2_combout $end
$var wire 1 ; out_random_number[2]~reg0_q $end
$var wire 1 < out_random_number~1_combout $end
$var wire 1 = out_random_number[1]~reg0_q $end
$var wire 1 > out_random_number~0_combout $end
$var wire 1 ? out_random_number[0]~reg0_q $end
$upscope $end
$upscope $end
$enddefinitions $end
#0
$dumpvars
0!
1"
1'
0&
0%
0$
0#
x(
0)
1*
x+
1,
1-
1.
1/
00
01
02
03
04
15
06
07
08
09
0:
0;
0<
0=
0>
0?
$end
#5000
1!
0(
14
#10000
0!
1(
04
#15000
1!
0(
14
#20000
0!
1(
04
#25000
1!
0(
14
#30000
0!
1(
04
#35000
1!
0(
14
#40000
0!
1(
04
#45000
1!
0(
14
#50000
0"
0!
05
1(
04
1>
16
#55000
1!
0(
14
1?
17
13
0/
1#
0'
06
18
#60000
0!
1(
04
#65000
1!
0(
14
19
07
03
12
0#
1$
08
1:
#70000
0!
1(
04
#75000
1!
0(
14
1;
09
02
11
0$
1%
0:
1<
16
#80000
0!
1(
04
#85000
1!
0(
14
1=
0;
17
13
01
10
1#
0%
1&
18
0<
06
0>
#90000
0!
1(
04
#95000
1!
0(
14
0?
0=
19
07
03
12
00
1/
0#
1$
0&
1'
16
08
1:
1>
#100000
0!
1(
04
#105000
1!
0(
14
1?
1;
09
17
13
02
11
0/
1#
0$
1%
0'
18
0:
1<
#110000
0!
1(
04
#115000
1!
0(
14
1=
0;
19
12
01
10
1$
0%
1&
1:
0<
06
0>
#120000
0!
1(
04
#125000
1!
0(
14
0?
0=
1;
07
03
11
00
1/
0#
1%
0&
1'
08
1<
1>
#130000
0!
1(
04
#135000
1!
0(
14
1?
1=
09
02
10
0/
0$
1&
0'
16
0:
0>
#140000
0!
1(
04
#145000
1!
0(
14
0?
0;
17
13
01
1/
1#
0%
1'
18
0<
#150000
0!
1(
04
#155000
1!
0(
14
0=
19
12
00
1$
0&
1:
1>
#160000
0!
1(
04
#165000
1!
0(
14
1?
1;
11
0/
1%
0'
1<
#170000
0!
1(
04
#175000
1!
0(
14
1=
10
1&
0>
#180000
0!
1(
04
#185000
1!
0(
14
0?
1/
1'
06
#190000
0!
1(
04
#195000
1!
0(
14
07
03
0#
08
#200000
0!
1(
04
#205000
1!
0(
14
09
02
0$
0:
#210000
0!
1(
04
#215000
1!
0(
14
0;
01
0%
0<
16
#220000
0!
1(
04
#225000
1!
0(
14
0=
17
13
00
1#
0&
18
1>
#230000
0!
1(
04
#235000
1!
0(
14
1?
19
12
0/
1$
0'
06
1:
#240000
0!
1(
04
#245000
1!
0(
14
1;
07
03
11
0#
1%
08
1<
16
#250000
0!
1(
04
#255000
1!
0(
14
1=
09
17
13
02
10
1#
0$
1&
18
0:
0>
#260000
0!
1(
04
#265000
1!
0(
14
0?
0;
19
12
01
1/
1$
0%
1'
1:
0<
#270000
0!
1(
04
#275000
1!
0(
14
0=
1;
11
00
1%
0&
1<
06
1>
#280000
0!
1(
04
#285000
1!
0(
14
1?
1=
07
03
10
0/
0#
1&
0'
16
08
0>
#290000
0!
1(
04
#295000
1!
0(
14
0?
09
17
13
02
1/
1#
0$
1'
06
18
0:
#300000
0!
1(
04
#305000
1!
0(
14
0;
19
07
03
12
01
0#
1$
0%
08
1:
0<
16
#310000
0!
1(
04
#315000
1!
0(
14
0=
1;
09
17
13
02
11
00
1#
0$
1%
0&
18
0:
1<
06
1>
#320000
0!
1(
04
#325000
1!
0(
14
1?
1=
0;
19
07
03
12
01
10
0/
0#
1$
0%
1&
0'
08
1:
0<
0>
#330000
0!
1(
04
#335000
1!
0(
14
0?
0=
1;
09
02
11
00
1/
0$
1%
0&
1'
0:
1<
1>
#340000
0!
1(
04
#345000
1!
0(
14
1?
1=
0;
01
10
0/
0%
1&
0'
0<
0>
#350000
0!
1(
04
#355000
1!
0(
14
0?
0=
00
1/
0&
1'
16
1>
#360000
0!
1(
04
#365000
1!
0(
14
1?
17
13
0/
1#
0'
06
18
#370000
0!
1(
04
#375000
1!
0(
14
19
07
03
12
0#
1$
08
1:
#380000
0!
1(
04
#385000
1!
0(
14
1;
09
02
11
0$
1%
0:
1<
16
#390000
0!
1(
04
#395000
1!
0(
14
1=
0;
17
13
01
10
1#
0%
1&
18
0<
06
0>
#400000
0!
1(
04
#405000
1!
0(
14
0?
0=
19
07
03
12
00
1/
0#
1$
0&
1'
16
08
1:
1>
#410000
0!
1(
04
#415000
1!
0(
14
1?
1;
09
17
13
02
11
0/
1#
0$
1%
0'
18
0:
1<
#420000
0!
1(
04
#425000
1!
0(
14
1=
0;
19
12
01
10
1$
0%
1&
1:
0<
06
0>
#430000
0!
1(
04
#435000
1!
0(
14
0?
0=
1;
07
03
11
00
1/
0#
1%
0&
1'
08
1<
1>
#440000
0!
1(
04
#445000
1!
0(
14
1?
1=
09
02
10
0/
0$
1&
0'
16
0:
0>
#450000
0!
1(
04
#455000
1!
0(
14
0?
0;
17
13
01
1/
1#
0%
1'
18
0<
#460000
0!
1(
04
#465000
1!
0(
14
0=
19
12
00
1$
0&
1:
1>
#470000
0!
1(
04
#475000
1!
0(
14
1?
1;
11
0/
1%
0'
1<
#480000
0!
1(
04
#485000
1!
0(
14
1=
10
1&
0>
#490000
0!
1(
04
#495000
1!
0(
14
0?
1/
1'
06
#500000
0!
1(
04
#505000
1!
0(
14
07
03
0#
08
#510000
0!
1(
04
#515000
1!
0(
14
09
02
0$
0:
#520000
0!
1(
04
#525000
1!
0(
14
0;
01
0%
0<
16
#530000
0!
1(
04
#535000
1!
0(
14
0=
17
13
00
1#
0&
18
1>
#540000
0!
1(
04
#545000
1!
0(
14
1?
19
12
0/
1$
0'
06
1:
#550000
0!
1(
04
#555000
1!
0(
14
1;
07
03
11
0#
1%
08
1<
16
#560000
0!
1(
04
#565000
1!
0(
14
1=
09
17
13
02
10
1#
0$
1&
18
0:
0>
#570000
0!
1(
04
#575000
1!
0(
14
0?
0;
19
12
01
1/
1$
0%
1'
1:
0<
#580000
0!
1(
04
#585000
1!
0(
14
0=
1;
11
00
1%
0&
1<
06
1>
#590000
0!
1(
04
#595000
1!
0(
14
1?
1=
07
03
10
0/
0#
1&
0'
16
08
0>
#600000
0!
1(
04
#605000
1!
0(
14
0?
09
17
13
02
1/
1#
0$
1'
06
18
0:
#610000
0!
1(
04
#615000
1!
0(
14
0;
19
07
03
12
01
0#
1$
0%
08
1:
0<
16
#620000
0!
1(
04
#625000
1!
0(
14
0=
1;
09
17
13
02
11
00
1#
0$
1%
0&
18
0:
1<
06
1>
#630000
0!
1(
04
#635000
1!
0(
14
1?
1=
0;
19
07
03
12
01
10
0/
0#
1$
0%
1&
0'
08
1:
0<
0>
#640000
0!
1(
04
#645000
1!
0(
14
0?
0=
1;
09
02
11
00
1/
0$
1%
0&
1'
0:
1<
1>
#650000
0!
1(
04
#655000
1!
0(
14
1?
1=
0;
01
10
0/
0%
1&
0'
0<
0>
#660000
0!
1(
04
#665000
1!
0(
14
0?
0=
00
1/
0&
1'
16
1>
#670000
0!
1(
04
#675000
1!
0(
14
1?
17
13
0/
1#
0'
06
18
#680000
0!
1(
04
#685000
1!
0(
14
19
07
03
12
0#
1$
08
1:
#690000
0!
1(
04
#695000
1!
0(
14
1;
09
02
11
0$
1%
0:
1<
16
#700000
0!
1(
04
#705000
1!
0(
14
1=
0;
17
13
01
10
1#
0%
1&
18
0<
06
0>
#710000
0!
1(
04
#715000
1!
0(
14
0?
0=
19
07
03
12
00
1/
0#
1$
0&
1'
16
08
1:
1>
#720000
0!
1(
04
#725000
1!
0(
14
1?
1;
09
17
13
02
11
0/
1#
0$
1%
0'
18
0:
1<
#730000
0!
1(
04
#735000
1!
0(
14
1=
0;
19
12
01
10
1$
0%
1&
1:
0<
06
0>
#740000
0!
1(
04
#745000
1!
0(
14
0?
0=
1;
07
03
11
00
1/
0#
1%
0&
1'
08
1<
1>
#750000
0!
1(
04
#755000
1!
0(
14
1?
1=
09
02
10
0/
0$
1&
0'
16
0:
0>
#760000
0!
1(
04
#765000
1!
0(
14
0?
0;
17
13
01
1/
1#
0%
1'
18
0<
#770000
0!
1(
04
#775000
1!
0(
14
0=
19
12
00
1$
0&
1:
1>
#780000
0!
1(
04
#785000
1!
0(
14
1?
1;
11
0/
1%
0'
1<
#790000
0!
1(
04
#795000
1!
0(
14
1=
10
1&
0>
#800000
0!
1(
04
#805000
1!
0(
14
0?
1/
1'
06
#810000
0!
1(
04
#815000
1!
0(
14
07
03
0#
08
#820000
0!
1(
04
#825000
1!
0(
14
09
02
0$
0:
#830000
0!
1(
04
#835000
1!
0(
14
0;
01
0%
0<
16
#840000
0!
1(
04
#845000
1!
0(
14
0=
17
13
00
1#
0&
18
1>
#850000
0!
1(
04
#855000
1!
0(
14
1?
19
12
0/
1$
0'
06
1:
#860000
0!
1(
04
#865000
1!
0(
14
1;
07
03
11
0#
1%
08
1<
16
#870000
0!
1(
04
#875000
1!
0(
14
1=
09
17
13
02
10
1#
0$
1&
18
0:
0>
#880000
0!
1(
04
#885000
1!
0(
14
0?
0;
19
12
01
1/
1$
0%
1'
1:
0<
#890000
0!
1(
04
#895000
1!
0(
14
0=
1;
11
00
1%
0&
1<
06
1>
#900000
0!
1(
04
#905000
1!
0(
14
1?
1=
07
03
10
0/
0#
1&
0'
16
08
0>
#910000
0!
1(
04
#915000
1!
0(
14
0?
09
17
13
02
1/
1#
0$
1'
06
18
0:
#920000
0!
1(
04
#925000
1!
0(
14
0;
19
07
03
12
01
0#
1$
0%
08
1:
0<
16
#930000
0!
1(
04
#935000
1!
0(
14
0=
1;
09
17
13
02
11
00
1#
0$
1%
0&
18
0:
1<
06
1>
#940000
0!
1(
04
#945000
1!
0(
14
1?
1=
0;
19
07
03
12
01
10
0/
0#
1$
0%
1&
0'
08
1:
0<
0>
#950000
0!
1(
04
#955000
1!
0(
14
0?
0=
1;
09
02
11
00
1/
0$
1%
0&
1'
0:
1<
1>
#960000
0!
1(
04
#965000
1!
0(
14
1?
1=
0;
01
10
0/
0%
1&
0'
0<
0>
#970000
0!
1(
04
#975000
1!
0(
14
0?
0=
00
1/
0&
1'
16
1>
#980000
0!
1(
04
#985000
1!
0(
14
1?
17
13
0/
1#
0'
06
18
#990000
0!
1(
04
#995000
1!
0(
14
19
07
03
12
0#
1$
08
1:
